Assignment_1_Data_624
…
tourism_data <- readxl::read_excel("C:/Users/Uzma/CUNY-SPS-Assignments/Data_624/Data_624_Predictive_Analytics/tourism.xlsx")

# head(tourism_data)

b. Create a tsibble which is identical to the tourism tsibble from
the tsibble package.

library(tsibble)
# the index is 'Quarter' and keys are Region, State, Purpose
tourism_tsibble <- as_tsibble(tourism)

tourism_tsibble

## # A tsibble: 24,320 x 5 [1Q]
## # Key:       Region, State, Purpose [304]
##    Quarter Region   State           Purpose  Trips
##      <qtr> <chr>    <chr>           <chr>    <dbl>
##  1 1998 Q1 Adelaide South Australia Business  135.
##  2 1998 Q2 Adelaide South Australia Business  110.
##  3 1998 Q3 Adelaide South Australia Business  166.
##  4 1998 Q4 Adelaide South Australia Business  127.
##  5 1999 Q1 Adelaide South Australia Business  137.
##  6 1999 Q2 Adelaide South Australia Business  200.
##  7 1999 Q3 Adelaide South Australia Business  169.
##  8 1999 Q4 Adelaide South Australia Business  134.
##  9 2000 Q1 Adelaide South Australia Business  154.
## 10 2000 Q2 Adelaide South Australia Business  169.
## #  24,310 more rows
…
state_tourism <- tourism_tsibble %>%
  # 1. Group by the new key State
  # This automatically drops Region and Purpose from the grouping
  group_by(State) %>%
  
  # 2. Sum the trips
  # tsibble automatically groups by Quarter
  summarise(Trips = sum(Trips))

# View the result
state_tourism

## # A tsibble: 640 x 3 [1Q]
## # Key:       State [8]
##    State Quarter Trips
##    <chr>   <qtr> <dbl>
##  1 ACT   1998 Q1  551.
##  2 ACT   1998 Q2  416.
##  3 ACT   1998 Q3  436.
##  4 ACT   1998 Q4  450.
##  5 ACT   1999 Q1  379.
##  6 ACT   1999 Q2  558.
##  7 ACT   1999 Q3  449.
##  8 ACT   1999 Q4  595.
##  9 ACT   2000 Q1  600.
## 10 ACT   2000 Q2  557.
## #  630 more rows
…
