Assignment_2_Data_624
…
## # A tsibble: 6 x 7 [1Q]
##   Quarter  Beer Tobacco Bricks Cement Electricity   Gas
##     <qtr> <dbl>   <dbl>  <dbl>  <dbl>       <dbl> <dbl>
## 1 1956 Q1   284    5225    189    465        3923     5
## 2 1956 Q2   213    5178    204    532        4436     6
## 3 1956 Q3   227    5297    208    561        4806     7
## 4 1956 Q4   308    5681    197    570        4418     6
## 5 1957 Q1   262    5577    187    529        4339     5
## 6 1957 Q2   228    5651    214    604        4811     7

gas_production <- aus_production |>
  select(Quarter, Gas)
gas_production

## # A tsibble: 218 x 2 [1Q]
##    Quarter   Gas
##      <qtr> <dbl>
##  1 1956 Q1     5
##  2 1956 Q2     6
##  3 1956 Q3     7
##  4 1956 Q4     6
##  5 1957 Q1     5
##  6 1957 Q2     7
##  7 1957 Q3     7
##  8 1957 Q4     6
##  9 1958 Q1     5
## 10 1958 Q2     7
## #  208 more rows
…
Since the trend is NA for the last two quarters, the outlier is
mathematically excluded from the seasonal averages.

3.8 Recall your retail time series data (from Exercise 7 in Section
2.10). Decompose the series using X-11. Does it reveal any outliers, or
unusual features that you had not noticed previously?

set.seed(12345678)
myseries <- aus_retail |>
  filter(`Series ID` == sample(aus_retail$`Series ID`,1))

myseries

## # A tsibble: 369 x 5 [1M]
## # Key:       State, Industry [1]
##    State              Industry                     `Series ID`    Month Turnover
##    <chr>              <chr>                        <chr>          <mth>    <dbl>
##  1 Northern Territory Clothing, footwear and pers A3349767W   1988 Apr      2.3
##  2 Northern Territory Clothing, footwear and pers A3349767W   1988 May      2.9
##  3 Northern Territory Clothing, footwear and pers A3349767W   1988 Jun      2.6
##  4 Northern Territory Clothing, footwear and pers A3349767W   1988 Jul      2.8
##  5 Northern Territory Clothing, footwear and pers A3349767W   1988 Aug      2.9
##  6 Northern Territory Clothing, footwear and pers A3349767W   1988 Sep      3  
##  7 Northern Territory Clothing, footwear and pers A3349767W   1988 Oct      3.1
##  8 Northern Territory Clothing, footwear and pers A3349767W   1988 Nov      3  
##  9 Northern Territory Clothing, footwear and pers A3349767W   1988 Dec      4.2
## 10 Northern Territory Clothing, footwear and pers A3349767W   1989 Jan      2.7
## #  359 more rows
…
