Assignment_5_Data_624
…
a. Plot the Exports series and discuss the main features of the
data.

Filtering for Australia and plotting

library(fpp3)

# Filtering for Australia and plotting
aus_exports <- global_economy |>
  filter(Country == "Australia")
aus_exports

## # A tsibble: 58 x 9 [1Y]
## # Key:       Country [1]
##    Country   Code   Year          GDP Growth   CPI Imports Exports Population
##    <fct>     <fct> <dbl>        <dbl>  <dbl> <dbl>   <dbl>   <dbl>      <dbl>
##  1 Australia AUS    1960 18573188487.  NA     7.96    14.1    13.0   10276477
##  2 Australia AUS    1961 19648336880.   2.49  8.14    15.0    12.4   10483000
##  3 Australia AUS    1962 19888005376.   1.30  8.12    12.6    13.9   10742000
##  4 Australia AUS    1963 21501847911.   6.21  8.17    13.8    13.0   10950000
##  5 Australia AUS    1964 23758539590.   6.98  8.40    13.8    14.9   11167000
##  6 Australia AUS    1965 25931235301.   5.98  8.69    15.3    13.2   11388000
##  7 Australia AUS    1966 27261731437.   2.38  8.98    15.1    12.9   11651000
##  8 Australia AUS    1967 30389741292.   6.30  9.29    13.9    12.9   11799000
##  9 Australia AUS    1968 32657632434.   5.10  9.52    14.5    12.3   12009000
## 10 Australia AUS    1969 36620002240.   7.04  9.83    13.3    12.0   12263000
## # ℹ 48 more rows
…
Now we left Join the fitted values to the
components

components(aus_exports_fit) |>
  left_join(fitted(aus_exports_fit), by = c("Country", ".model", "Year"))

## # A dable: 59 x 7 [1Y]
## # Key:     Country, .model [1]
## # :        Exports = lag(level, 1) + remainder
##    Country   .model  Year Exports level remainder .fitted
##    <fct>     <chr>  <dbl>   <dbl> <dbl>     <dbl>   <dbl>
##  1 Australia ANN     1959    NA    13.0  NA          NA  
##  2 Australia ANN     1960    13.0  13.0   0.00503    13.0
##  3 Australia ANN     1961    12.4  12.7  -0.589      13.0
##  4 Australia ANN     1962    13.9  13.4   1.28       12.7
##  5 Australia ANN     1963    13.0  13.2  -0.380      13.4
##  6 Australia ANN     1964    14.9  14.2   1.77       13.2
##  7 Australia ANN     1965    13.2  13.6  -0.951      14.2
##  8 Australia ANN     1966    12.9  13.2  -0.701      13.6
##  9 Australia ANN     1967    12.9  13.0  -0.353      13.2
## 10 Australia ANN     1968    12.3  12.6  -0.739      13.0
## # ℹ 49 more rows
…
Damped trends are often more accurate for long-term retail forecasts
because they prevent over-optimistic projections of infinite growth.

In the Damped model, you will see a new parameter called phi if phi
is significantly less than 1 e.g., 0.85, the model is aggressively
slowing down the projected growth.

c. Compare the RMSE of the one-step forecasts from the two methods.
Which do you prefer?

retail_comparison_fit |> 
  tidy()

## # A tibble: 35 × 5
##    State              Industry                             .model term  estimate
##    <chr>              <chr>                                <chr>  <chr>    <dbl>
##  1 Northern Territory Clothing, footwear and personal acc… Holt-… alpha 0.526   
##  2 Northern Territory Clothing, footwear and personal acc… Holt-… beta  0.000103
##  3 Northern Territory Clothing, footwear and personal acc… Holt-… gamma 0.000104
##  4 Northern Territory Clothing, footwear and personal acc… Holt-… l[0]  2.35    
##  5 Northern Territory Clothing, footwear and personal acc… Holt-… b[0]  0.0444  
##  6 Northern Territory Clothing, footwear and personal acc… Holt-… s[0]  0.840   
##  7 Northern Territory Clothing, footwear and personal acc… Holt-… s[-1] 0.762   
##  8 Northern Territory Clothing, footwear and personal acc… Holt-… s[-2] 0.834   
##  9 Northern Territory Clothing, footwear and personal acc… Holt-… s[-3] 1.37    
## 10 Northern Territory Clothing, footwear and personal acc… Holt-… s[-4] 1.000   
## # ℹ 25 more rows
…
